{
    "textures": {
        "particle": "asral:blocks/bluecheese_wheel_side",
        "bottom": "asral:blocks/bluecheese_wheel_bottom",
        "top": "asral:blocks/bluecheese_wheel_top",
        "side": "asral:blocks/bluecheese_wheel_side",
        "inside": "asral:blocks/bluecheese_wheel_inner"
    },
    "elements": [
        {   "from": [ 5, 0, 1 ],
            "to": [ 15, 8, 15 ],
            "faces": {
                "down":  { "texture": "#bottom", "cullface": "down" },
                "up":    { "texture": "#top" },
                "north": { "texture": "#side" },
                "south": { "texture": "#side" },
                "west":  { "texture": "#inside" },
                "east":  { "texture": "#side" }
            }
        }
    ]
}
