{
    "variants": {
        "age=0": {
            "model": "asral:farming/lettuce_stage0"
        },
        "age=1": {
            "model": "asral:farming/lettuce_stage1"
        },
        "age=2": {
            "model": "asral:farming/lettuce_stage2"
        },
        "age=3": {
            "model": "asral:farming/lettuce_stage3"
        },
        "age=4": {
            "model": "asral:farming/lettuce_stage4"
        },
        "age=5": {
            "model": "asral:farming/lettuce_stage5"
        },
        "age=6": {
            "model": "asral:farming/lettuce_stage6"
        },
        "age=7": {
            "model": "asral:farming/lettuce_stage7"
        }
    }
}
